simulation/qsim/genius_knockoff.msim.vcd
$comment
	File created using the following command:
		vcd file genius_knockoff.msim.vcd -direction
$end
$date
	Mon Nov 29 18:28:17 2021
$end
$version
	ModelSim Version 10.1d
$end
$timescale
	1ps
$end
$scope module genius_knockoff_vlg_vec_tst $end
$var reg 1 ! btn0 $end
$var reg 1 " btn1 $end
$var reg 1 # btn2 $end
$var reg 1 $ btn3 $end
$var reg 1 % clk $end
$var reg 1 & rst $end
$var wire 1 ' arrayed_0_2 $end
$var wire 1 ( arrayed_0_1 $end
$var wire 1 ) arrayed_0_0 $end
$var wire 1 * arrayed_1_2 $end
$var wire 1 + arrayed_1_1 $end
$var wire 1 , arrayed_1_0 $end
$var wire 1 - arrayed_2_2 $end
$var wire 1 . arrayed_2_1 $end
$var wire 1 / arrayed_2_0 $end
$var wire 1 0 arrayed_3_2 $end
$var wire 1 1 arrayed_3_1 $end
$var wire 1 2 arrayed_3_0 $end
$var wire 1 3 arrayed_4_2 $end
$var wire 1 4 arrayed_4_1 $end
$var wire 1 5 arrayed_4_0 $end
$var wire 1 6 arrayed_5_2 $end
$var wire 1 7 arrayed_5_1 $end
$var wire 1 8 arrayed_5_0 $end
$var wire 1 9 arrayed_6_2 $end
$var wire 1 : arrayed_6_1 $end
$var wire 1 ; arrayed_6_0 $end
$var wire 1 < arrayed_7_2 $end
$var wire 1 = arrayed_7_1 $end
$var wire 1 > arrayed_7_0 $end
$var wire 1 ? arrayed_8_2 $end
$var wire 1 @ arrayed_8_1 $end
$var wire 1 A arrayed_8_0 $end
$var wire 1 B arrayed_9_2 $end
$var wire 1 C arrayed_9_1 $end
$var wire 1 D arrayed_9_0 $end
$var wire 1 E arrayed_10_2 $end
$var wire 1 F arrayed_10_1 $end
$var wire 1 G arrayed_10_0 $end
$var wire 1 H arrayed_11_2 $end
$var wire 1 I arrayed_11_1 $end
$var wire 1 J arrayed_11_0 $end
$var wire 1 K arrayed_12_2 $end
$var wire 1 L arrayed_12_1 $end
$var wire 1 M arrayed_12_0 $end
$var wire 1 N arrayed_13_2 $end
$var wire 1 O arrayed_13_1 $end
$var wire 1 P arrayed_13_0 $end
$var wire 1 Q arrayed_14_2 $end
$var wire 1 R arrayed_14_1 $end
$var wire 1 S arrayed_14_0 $end
$var wire 1 T arrayed_15_2 $end
$var wire 1 U arrayed_15_1 $end
$var wire 1 V arrayed_15_0 $end
$var wire 1 W arrayed_16_2 $end
$var wire 1 X arrayed_16_1 $end
$var wire 1 Y arrayed_16_0 $end
$var wire 1 Z arrayed_17_2 $end
$var wire 1 [ arrayed_17_1 $end
$var wire 1 \ arrayed_17_0 $end
$var wire 1 ] arrayed_18_2 $end
$var wire 1 ^ arrayed_18_1 $end
$var wire 1 _ arrayed_18_0 $end
$var wire 1 ` arrayed_19_2 $end
$var wire 1 a arrayed_19_1 $end
$var wire 1 b arrayed_19_0 $end
$var wire 1 c arrayed_20_2 $end
$var wire 1 d arrayed_20_1 $end
$var wire 1 e arrayed_20_0 $end
$var wire 1 f arrayed_21_2 $end
$var wire 1 g arrayed_21_1 $end
$var wire 1 h arrayed_21_0 $end
$var wire 1 i arrayed_22_2 $end
$var wire 1 j arrayed_22_1 $end
$var wire 1 k arrayed_22_0 $end
$var wire 1 l arrayed_23_2 $end
$var wire 1 m arrayed_23_1 $end
$var wire 1 n arrayed_23_0 $end
$var wire 1 o arrayed_24_2 $end
$var wire 1 p arrayed_24_1 $end
$var wire 1 q arrayed_24_0 $end
$var wire 1 r led0 $end
$var wire 1 s led1 $end
$var wire 1 t led2 $end
$var wire 1 u led3 $end
$var wire 1 v sampler $end
$scope module i1 $end
$var wire 1 w gnd $end
$var wire 1 x vcc $end
$var wire 1 y unknown $end
$var tri1 1 z devclrn $end
$var tri1 1 { devpor $end
$var tri1 1 | devoe $end
$var wire 1 } led0~1_combout $end
$var wire 1 ~ led0~output_o $end
$var wire 1 !! led1~output_o $end
$var wire 1 "! led2~output_o $end
$var wire 1 #! led3~output_o $end
$var wire 1 $! arrayed[24][0]~output_o $end
$var wire 1 %! arrayed[24][1]~output_o $end
$var wire 1 &! arrayed[24][2]~output_o $end
$var wire 1 '! arrayed[23][0]~output_o $end
$var wire 1 (! arrayed[23][1]~output_o $end
$var wire 1 )! arrayed[23][2]~output_o $end
$var wire 1 *! arrayed[22][0]~output_o $end
$var wire 1 +! arrayed[22][1]~output_o $end
$var wire 1 ,! arrayed[22][2]~output_o $end
$var wire 1 -! arrayed[21][0]~output_o $end
$var wire 1 .! arrayed[21][1]~output_o $end
$var wire 1 /! arrayed[21][2]~output_o $end
$var wire 1 0! arrayed[20][0]~output_o $end
$var wire 1 1! arrayed[20][1]~output_o $end
$var wire 1 2! arrayed[20][2]~output_o $end
$var wire 1 3! arrayed[19][0]~output_o $end
$var wire 1 4! arrayed[19][1]~output_o $end
$var wire 1 5! arrayed[19][2]~output_o $end
$var wire 1 6! arrayed[18][0]~output_o $end
$var wire 1 7! arrayed[18][1]~output_o $end
$var wire 1 8! arrayed[18][2]~output_o $end
$var wire 1 9! arrayed[17][0]~output_o $end
$var wire 1 :! arrayed[17][1]~output_o $end
$var wire 1 ;! arrayed[17][2]~output_o $end
$var wire 1 <! arrayed[16][0]~output_o $end
$var wire 1 =! arrayed[16][1]~output_o $end
$var wire 1 >! arrayed[16][2]~output_o $end
$var wire 1 ?! arrayed[15][0]~output_o $end
$var wire 1 @! arrayed[15][1]~output_o $end
$var wire 1 A! arrayed[15][2]~output_o $end
$var wire 1 B! arrayed[14][0]~output_o $end
$var wire 1 C! arrayed[14][1]~output_o $end
$var wire 1 D! arrayed[14][2]~output_o $end
$var wire 1 E! arrayed[13][0]~output_o $end
$var wire 1 F! arrayed[13][1]~output_o $end
$var wire 1 G! arrayed[13][2]~output_o $end
$var wire 1 H! arrayed[12][0]~output_o $end
$var wire 1 I! arrayed[12][1]~output_o $end
$var wire 1 J! arrayed[12][2]~output_o $end
$var wire 1 K! arrayed[11][0]~output_o $end
$var wire 1 L! arrayed[11][1]~output_o $end
$var wire 1 M! arrayed[11][2]~output_o $end
$var wire 1 N! arrayed[10][0]~output_o $end
$var wire 1 O! arrayed[10][1]~output_o $end
$var wire 1 P! arrayed[10][2]~output_o $end
$var wire 1 Q! arrayed[9][0]~output_o $end
$var wire 1 R! arrayed[9][1]~output_o $end
$var wire 1 S! arrayed[9][2]~output_o $end
$var wire 1 T! arrayed[8][0]~output_o $end
$var wire 1 U! arrayed[8][1]~output_o $end
$var wire 1 V! arrayed[8][2]~output_o $end
$var wire 1 W! arrayed[7][0]~output_o $end
$var wire 1 X! arrayed[7][1]~output_o $end
$var wire 1 Y! arrayed[7][2]~output_o $end
$var wire 1 Z! arrayed[6][0]~output_o $end
$var wire 1 [! arrayed[6][1]~output_o $end
$var wire 1 \! arrayed[6][2]~output_o $end
$var wire 1 ]! arrayed[5][0]~output_o $end
$var wire 1 ^! arrayed[5][1]~output_o $end
$var wire 1 _! arrayed[5][2]~output_o $end
$var wire 1 `! arrayed[4][0]~output_o $end
$var wire 1 a! arrayed[4][1]~output_o $end
$var wire 1 b! arrayed[4][2]~output_o $end
$var wire 1 c! arrayed[3][0]~output_o $end
$var wire 1 d! arrayed[3][1]~output_o $end
$var wire 1 e! arrayed[3][2]~output_o $end
$var wire 1 f! arrayed[2][0]~output_o $end
$var wire 1 g! arrayed[2][1]~output_o $end
$var wire 1 h! arrayed[2][2]~output_o $end
$var wire 1 i! arrayed[1][0]~output_o $end
$var wire 1 j! arrayed[1][1]~output_o $end
$var wire 1 k! arrayed[1][2]~output_o $end
$var wire 1 l! arrayed[0][0]~output_o $end
$var wire 1 m! arrayed[0][1]~output_o $end
$var wire 1 n! arrayed[0][2]~output_o $end
$var wire 1 o! clk~input_o $end
$var wire 1 p! Add0~1_sumout $end
$var wire 1 q! difficulty.medium~0_combout $end
$var wire 1 r! rst~input_o $end
$var wire 1 s! Add0~2 $end
$var wire 1 t! Add0~17_sumout $end
$var wire 1 u! LessThan0~4_combout $end
$var wire 1 v! LessThan0~5_combout $end
$var wire 1 w! LessThan0~6_combout $end
$var wire 1 x! LessThan0~7_combout $end
$var wire 1 y! LessThan0~8_combout $end
$var wire 1 z! btn2~input_o $end
$var wire 1 {! btn3~input_o $end
$var wire 1 |! btn0~input_o $end
$var wire 1 }! i[11]~1_combout $end
$var wire 1 ~! i[0]~2_combout $end
$var wire 1 !" Add0~18 $end
$var wire 1 "" Add0~13_sumout $end
$var wire 1 #" Add0~14 $end
$var wire 1 $" Add0~5_sumout $end
$var wire 1 %" Add0~6 $end
$var wire 1 &" Add0~9_sumout $end
$var wire 1 '" Add0~10 $end
$var wire 1 (" Add0~125_sumout $end
$var wire 1 )" Add0~126 $end
$var wire 1 *" Add0~121_sumout $end
$var wire 1 +" Add0~122 $end
$var wire 1 ," Add0~85_sumout $end
$var wire 1 -" Add0~86 $end
$var wire 1 ." Add0~89_sumout $end
$var wire 1 /" Add0~90 $end
$var wire 1 0" Add0~93_sumout $end
$var wire 1 1" Add0~94 $end
$var wire 1 2" Add0~101_sumout $end
$var wire 1 3" Add0~102 $end
$var wire 1 4" Add0~97_sumout $end
$var wire 1 5" Add0~98 $end
$var wire 1 6" Add0~29_sumout $end
$var wire 1 7" Add0~30 $end
$var wire 1 8" Add0~25_sumout $end
$var wire 1 9" Add0~26 $end
$var wire 1 :" Add0~33_sumout $end
$var wire 1 ;" Add0~34 $end
$var wire 1 <" Add0~37_sumout $end
$var wire 1 =" Add0~38 $end
$var wire 1 >" Add0~41_sumout $end
$var wire 1 ?" Add0~42 $end
$var wire 1 @" Add0~45_sumout $end
$var wire 1 A" Add0~46 $end
$var wire 1 B" Add0~53_sumout $end
$var wire 1 C" Add0~54 $end
$var wire 1 D" Add0~49_sumout $end
$var wire 1 E" Add0~50 $end
$var wire 1 F" Add0~81_sumout $end
$var wire 1 G" Add0~82 $end
$var wire 1 H" Add0~57_sumout $end
$var wire 1 I" Add0~58 $end
$var wire 1 J" Add0~61_sumout $end
$var wire 1 K" Add0~62 $end
$var wire 1 L" Add0~65_sumout $end
$var wire 1 M" Add0~66 $end
$var wire 1 N" Add0~69_sumout $end
$var wire 1 O" Add0~70 $end
$var wire 1 P" Add0~77_sumout $end
$var wire 1 Q" Add0~78 $end
$var wire 1 R" Add0~73_sumout $end
$var wire 1 S" Add0~74 $end
$var wire 1 T" Add0~105_sumout $end
$var wire 1 U" Add0~106 $end
$var wire 1 V" Add0~109_sumout $end
$var wire 1 W" Add0~110 $end
$var wire 1 X" Add0~113_sumout $end
$var wire 1 Y" Add0~114 $end
$var wire 1 Z" Add0~117_sumout $end
$var wire 1 [" Add0~118 $end
$var wire 1 \" Add0~21_sumout $end
$var wire 1 ]" difficulty~9_combout $end
$var wire 1 ^" difficulty.medium~q $end
$var wire 1 _" difficulty.hard~q $end
$var wire 1 `" difficulty.extreme~q $end
$var wire 1 a" difficulty.hell~q $end
$var wire 1 b" difficulty.easy~0_combout $end
$var wire 1 c" difficulty.easy~q $end
$var wire 1 d" LessThan0~0_combout $end
$var wire 1 e" LessThan0~1_combout $end
$var wire 1 f" LessThan0~2_combout $end
$var wire 1 g" LessThan0~3_combout $end
$var wire 1 h" LessThan0~9_combout $end
$var wire 1 i" Mux5~0_combout $end
$var wire 1 j" Mux6~0_combout $end
$var wire 1 k" btn1~input_o $end
$var wire 1 l" led0~2_combout $end
$var wire 1 m" led0~3_combout $end
$var wire 1 n" i[11]~0_combout $end
$var wire 1 o" usermode~0_combout $end
$var wire 1 p" usermode~q $end
$var wire 1 q" led_on~0_combout $end
$var wire 1 r" led_on~1_combout $end
$var wire 1 s" led_on~q $end
$var wire 1 t" led0~4_combout $end
$var wire 1 u" led0~5_combout $end
$var wire 1 v" led0~reg0_q $end
$var wire 1 w" led1~1_combout $end
$var wire 1 x" led1~2_combout $end
$var wire 1 y" led1~0_combout $end
$var wire 1 z" Mux4~0_combout $end
$var wire 1 {" led1~4_combout $end
$var wire 1 |" led1~reg0_q $end
$var wire 1 }" led0~0_combout $end
$var wire 1 ~" led2~1_combout $end
$var wire 1 !# led2~2_combout $end
$var wire 1 "# led2~0_combout $end
$var wire 1 ## led2~3_combout $end
$var wire 1 $# led2~reg0_q $end
$var wire 1 %# led1~3_combout $end
$var wire 1 &# Mux3~0_combout $end
$var wire 1 '# led3~0_combout $end
$var wire 1 (# led3~1_combout $end
$var wire 1 )# led3~2_combout $end
$var wire 1 *# led3~reg0_q $end
$var wire 1 +# i [31] $end
$var wire 1 ,# i [30] $end
$var wire 1 -# i [29] $end
$var wire 1 .# i [28] $end
$var wire 1 /# i [27] $end
$var wire 1 0# i [26] $end
$var wire 1 1# i [25] $end
$var wire 1 2# i [24] $end
$var wire 1 3# i [23] $end
$var wire 1 4# i [22] $end
$var wire 1 5# i [21] $end
$var wire 1 6# i [20] $end
$var wire 1 7# i [19] $end
$var wire 1 8# i [18] $end
$var wire 1 9# i [17] $end
$var wire 1 :# i [16] $end
$var wire 1 ;# i [15] $end
$var wire 1 <# i [14] $end
$var wire 1 =# i [13] $end
$var wire 1 ># i [12] $end
$var wire 1 ?# i [11] $end
$var wire 1 @# i [10] $end
$var wire 1 A# i [9] $end
$var wire 1 B# i [8] $end
$var wire 1 C# i [7] $end
$var wire 1 D# i [6] $end
$var wire 1 E# i [5] $end
$var wire 1 F# i [4] $end
$var wire 1 G# i [3] $end
$var wire 1 H# i [2] $end
$var wire 1 I# i [1] $end
$var wire 1 J# i [0] $end
$upscope $end
$upscope $end
$enddefinitions $end
#0
$dumpvars
0!
0"
0#
0$
1%
1&
0'
0(
0)
0*
0+
0,
0-
0.
0/
00
01
02
03
04
05
06
07
08
09
0:
0;
0<
0=
0>
0?
0@
0A
0B
0C
0D
0E
0F
0G
0H
0I
0J
0K
0L
0M
0N
0O
0P
0Q
0R
0S
0T
0U
0V
0W
0X
0Y
0Z
0[
0\
0]
0^
0_
0`
0a
0b
0c
0d
0e
0f
0g
0h
0i
0j
0k
0l
0m
0n
0o
0p
0q
0r
0s
0t
0u
xv
0w
1x
xy
1z
1{
1|
1}
0~
0!!
0"!
0#!
0$!
0%!
0&!
0'!
0(!
0)!
0*!
0+!
0,!
0-!
0.!
0/!
00!
01!
02!
03!
04!
05!
06!
07!
08!
09!
0:!
0;!
0<!
0=!
0>!
0?!
0@!
0A!
0B!
0C!
0D!
0E!
0F!
0G!
0H!
0I!
0J!
0K!
0L!
0M!
0N!
0O!
0P!
0Q!
0R!
0S!
0T!
0U!
0V!
0W!
0X!
0Y!
0Z!
0[!
0\!
0]!
0^!
0_!
0`!
0a!
0b!
0c!
0d!
0e!
0f!
0g!
0h!
0i!
0j!
0k!
0l!
0m!
0n!
1o!
1p!
1q!
1r!
0s!
0t!
1u!
1v!
1w!
1x!
1y!
0z!
0{!
0|!
1}!
0~!
0!"
0""
0#"
0$"
0%"
0&"
0'"
0("
0)"
0*"
0+"
0,"
0-"
0."
0/"
00"
01"
02"
03"
04"
05"
06"
07"
08"
09"
0:"
0;"
0<"
0="
0>"
0?"
0@"
0A"
0B"
0C"
0D"
0E"
0F"
0G"
0H"
0I"
0J"
0K"
0L"
0M"
0N"
0O"
0P"
0Q"
0R"
0S"
0T"
0U"
0V"
0W"
0X"
0Y"
0Z"
0["
0\"
0]"
0^"
0_"
0`"
0a"
1b"
0c"
1d"
1e"
0f"
0g"
1h"
0i"
1j"
0k"
0l"
1m"
0n"
0o"
0p"
0q"
0r"
0s"
0t"
1u"
0v"
1w"
0x"
0y"
0z"
0{"
0|"
1}"
1~"
0!#
0"#
0##
0$#
1%#
0&#
0'#
0(#
0)#
0*#
0J#
0I#
0H#
0G#
0F#
0E#
0D#
0C#
0B#
0A#
0@#
0?#
0>#
0=#
0<#
0;#
0:#
09#
08#
07#
06#
05#
04#
03#
02#
01#
00#
0/#
0.#
0-#
0,#
0+#
$end
#5000
0%
0o!
0v
#10000
0&
1%
0r!
1o!
1v
1~!
#15000
0%
0o!
0v
#20000
1%
1o!
1v
1J#
1v"
1s!
0p!
0e"
1i"
1~
1r
1t!
0}"
1"#
0%#
0}
1##
0u"
#25000
0%
0o!
0v
#30000
1%
1o!
1v
0J#
1I#
1$#
0v"
0s!
1p!
0i"
0j"
1z"
1!"
0t!
1"!
0~
1t
0r
0!"
1t!
1""
1l"
0"#
1&#
0##
0""
1'#
1)#
#35000
0%
0o!
0v
#40000
1%
1o!
1v
1J#
1*#
0$#
1s!
0p!
1i"
0z"
1#!
0"!
1u
0t
1!"
0t!
0l"
1y"
0&#
1""
1{"
0'#
0)#
#45000
0%
0o!
0v
#50000
1%
1o!
1v
0J#
1H#
0I#
0*#
1|"
0s!
1p!
1e"
1j"
1#"
0""
1g"
0!"
1t!
0#!
1!!
0u
1s
0t!
1$"
0#"
1""
0g"
0y"
1"#
0h"
1o"
0$"
1h"
0o"
0{"
1##
#55000
0%
0o!
0v
#60000
1%
1o!
1v
1J#
1$#
0|"
1s!
0p!
0e"
0i"
1"!
0!!
1t
0s
1t!
1g"
1}"
0"#
1%#
0h"
1o"
0##
#65000
0%
0o!
0v
#70000
1%
1o!
1v
1p"
0J#
0H#
0$#
1]"
0o"
1q"
0s!
1p!
1e"
0""
0g"
0"!
0t
0t!
0~!
0]"
1h"
1n"
1o"
#75000
0%
0o!
0v
#80000
1%
1o!
1v
#85000
0%
0o!
0v
#90000
1%
1o!
1v
#95000
0%
0o!
0v
#100000
1%
1o!
1v
#105000
0%
0o!
0v
#110000
1%
1o!
1v
#115000
0%
0o!
0v
#120000
1%
1o!
1v
#125000
0%
0o!
0v
#130000
1%
1o!
1v
#135000
0%
0o!
0v
#140000
1%
1o!
1v
#145000
0%
0o!
0v
#150000
1!
1%
1|!
1o!
1v
0}!
1u"
1~!
1r"
#155000
0%
0o!
0v
#160000
0!
1%
0|!
1o!
1v
1}!
0u"
0~!
0r"
1s"
1J#
1v"
1s!
0p!
0e"
1i"
1~
1r
1t!
0}"
1"#
0%#
#165000
0%
0o!
0v
#170000
1#
1%
1z!
1o!
1v
0}!
1!#
1~!
1r"
1##
0s"
0v"
0~
0r
#175000
0%
0o!
0v
#180000
0#
1%
0z!
1o!
1v
1}!
0!#
0~!
0r"
0##
1s"
0J#
1I#
1$#
0s!
1p!
0i"
0j"
1z"
1!"
0t!
1"!
1t
0!"
1t!
1""
1l"
0"#
1&#
0""
#185000
0%
0o!
0v
#190000
1$
1%
1{!
1o!
1v
0}!
0m"
1~!
1r"
1)#
0s"
0$#
0"!
0t
#195000
0%
0o!
0v
#200000
0$
1%
0{!
1o!
1v
1}!
1m"
0~!
0r"
0)#
1s"
1J#
1*#
1s!
0p!
1i"
0z"
1#!
1u
1!"
0t!
0l"
1y"
0&#
1""
#205000
0%
0o!
0v
#210000
1"
1%
1k"
1o!
1v
0}!
1x"
1~!
1r"
1{"
0s"
0*#
0#!
0u
#215000
0%
0o!
0v
#220000
0"
1%
0k"
1o!
1v
1}!
0x"
0~!
0r"
0{"
1s"
0J#
1H#
0I#
1|"
0s!
1p!
1e"
1j"
1#"
0""
1g"
0!"
1t!
1!!
1s
0t!
1$"
0#"
1""
0g"
0y"
1"#
1~!
1]"
0h"
0n"
0o"
0$"
0~!
0]"
1h"
1n"
1o"
#225000
0%
0o!
0v
#230000
1#
1%
1z!
1o!
1v
0}!
1!#
1~!
1r"
1##
0s"
0|"
0!!
0s
#235000
0%
0o!
0v
#240000
0#
1%
0z!
1o!
1v
1}!
0!#
0~!
0r"
0##
1s"
1J#
1$#
1s!
0p!
0e"
0i"
1"!
1t
1t!
1g"
1}"
0"#
1%#
1~!
1]"
0h"
0n"
0o"
#245000
0%
0o!
0v
#250000
1%
1o!
1v
0s"
0p"
0J#
1c"
1^"
0H#
0$#
0]"
1o"
0q"
0s!
1p!
1e"
0q!
0d"
1f"
0""
0"!
0t
0t!
0g"
1}
1h"
0o"
1u"
#255000
0%
0o!
0v
#260000
1%
1o!
1v
1J#
1v"
1s!
0p!
1i"
1~
1r
1t!
0}"
1"#
0%#
0}
1##
0u"
#265000
0%
0o!
0v
#270000
1%
1o!
1v
0J#
1I#
1$#
0v"
0s!
1p!
0e"
0i"
0j"
1z"
1!"
0t!
1"!
0~
1t
0r
0!"
1t!
1""
1l"
0"#
1&#
0##
0""
1'#
1)#
#275000
0%
0o!
0v
#280000
1%
1o!
1v
1J#
1*#
0$#
1s!
0p!
1i"
0z"
1#!
0"!
1u
0t
1!"
0t!
0l"
1y"
0&#
1""
1{"
0'#
0)#
#285000
0%
0o!
0v
#290000
1%
1o!
1v
0J#
1H#
0I#
0*#
1|"
0s!
1p!
1e"
1j"
1#"
0""
0!"
1t!
0#!
1!!
0u
1s
0t!
1$"
0#"
1""
0y"
1"#
0$"
0{"
1##
#295000
0%
0o!
0v
#300000
1%
1o!
1v
1J#
1$#
0|"
1s!
0p!
0i"
1"!
0!!
1t
0s
1t!
1}"
0"#
1%#
1}
0##
1u"
#305000
0%
0o!
0v
#310000
1%
1o!
1v
0J#
1I#
0$#
1v"
0s!
1p!
0e"
0j"
1z"
1!"
0t!
0"!
1~
0t
1r
0!"
1t!
1#"
0""
1l"
0}"
0%#
1&#
0}
0#"
1""
1$"
0u"
1'#
0$"
1)#
#315000
0%
0o!
0v
#320000
1%
1o!
1v
1J#
1*#
0v"
1s!
0p!
1i"
0z"
1#!
0~
1u
0r
1!"
0t!
0l"
1y"
0&#
1#"
0""
1{"
0'#
1$"
0)#
#325000
0%
0o!
0v
#330000
1%
1o!
1v
0J#
1G#
0H#
0I#
0*#
1|"
0s!
1p!
1e"
1j"
1%"
0$"
1d"
0f"
0#"
1""
0!"
1t!
0#!
1!!
0u
1s
0t!
1&"
0%"
1$"
0""
0y"
1"#
0&"
0{"
1##
#335000
0%
0o!
0v
#340000
1%
1o!
1v
1J#
1$#
0|"
1s!
0p!
0i"
1"!
0!!
1t
0s
1t!
1}"
0"#
1%#
1}
0##
1u"
#345000
0%
0o!
0v
#350000
1%
1o!
1v
0J#
1I#
0$#
1v"
0s!
1p!
0e"
0j"
1z"
1!"
0t!
0"!
1~
0t
1r
0!"
1t!
1""
1g"
1l"
0}"
0%#
1&#
0}
0""
0h"
1o"
0u"
#355000
0%
0o!
0v
#360000
1%
1o!
1v
1p"
0G#
0I#
0v"
1]"
0o"
1q"
0$"
0d"
1f"
1j"
0z"
0t!
1e"
0~
0r
0g"
0l"
1}"
1%#
0&#
0~!
0]"
1h"
1n"
1o"
#365000
0%
0o!
0v
#370000
1%
1o!
1v
#375000
0%
0o!
0v
#380000
1%
1o!
1v
#385000
0%
0o!
0v
#390000
1%
1o!
1v
#395000
0%
0o!
0v
