simulation/qsim/genius_knockoff.msim.vcd
$comment
	File created using the following command:
		vcd file genius_knockoff.msim.vcd -direction
$end
$date
	Tue Nov 30 21:25:19 2021
$end
$version
	ModelSim Version 10.1d
$end
$timescale
	1ps
$end
$scope module genius_knockoff_vlg_vec_tst $end
$var reg 1 ! btn0 $end
$var reg 1 " btn1 $end
$var reg 1 # btn2 $end
$var reg 1 $ btn3 $end
$var reg 1 % clk $end
$var reg 1 & rst $end
$var wire 1 ' led0 $end
$var wire 1 ( led1 $end
$var wire 1 ) led2 $end
$var wire 1 * led3 $end
$var wire 1 + sampler $end
$scope module i1 $end
$var wire 1 , gnd $end
$var wire 1 - vcc $end
$var wire 1 . unknown $end
$var tri1 1 / devclrn $end
$var tri1 1 0 devpor $end
$var tri1 1 1 devoe $end
$var wire 1 2 Add0~21_sumout $end
$var wire 1 3 Add0~114 $end
$var wire 1 4 led_on~q $end
$var wire 1 5 led_on~0_combout $end
$var wire 1 6 btn1~input_o $end
$var wire 1 7 led0~output_o $end
$var wire 1 8 led1~output_o $end
$var wire 1 9 led2~output_o $end
$var wire 1 : led3~output_o $end
$var wire 1 ; clk~input_o $end
$var wire 1 < Add0~1_sumout $end
$var wire 1 = i[12]~0_combout $end
$var wire 1 > rst~input_o $end
$var wire 1 ? btn2~input_o $end
$var wire 1 @ btn3~input_o $end
$var wire 1 A btn0~input_o $end
$var wire 1 B i[12]~1_combout $end
$var wire 1 C i[0]~2_combout $end
$var wire 1 D Add0~2 $end
$var wire 1 E Add0~13_sumout $end
$var wire 1 F Add0~14 $end
$var wire 1 G Add0~5_sumout $end
$var wire 1 H Add0~6 $end
$var wire 1 I Add0~17_sumout $end
$var wire 1 J Add0~18 $end
$var wire 1 K Add0~9_sumout $end
$var wire 1 L Add0~10 $end
$var wire 1 M Add0~117_sumout $end
$var wire 1 N Add0~118 $end
$var wire 1 O Add0~125_sumout $end
$var wire 1 P Add0~126 $end
$var wire 1 Q Add0~121_sumout $end
$var wire 1 R Add0~122 $end
$var wire 1 S Add0~85_sumout $end
$var wire 1 T Add0~86 $end
$var wire 1 U Add0~89_sumout $end
$var wire 1 V Add0~90 $end
$var wire 1 W Add0~93_sumout $end
$var wire 1 X Add0~94 $end
$var wire 1 Y Add0~101_sumout $end
$var wire 1 Z Add0~102 $end
$var wire 1 [ Add0~97_sumout $end
$var wire 1 \ Add0~98 $end
$var wire 1 ] Add0~29_sumout $end
$var wire 1 ^ Add0~30 $end
$var wire 1 _ Add0~25_sumout $end
$var wire 1 ` Add0~26 $end
$var wire 1 a Add0~33_sumout $end
$var wire 1 b Add0~34 $end
$var wire 1 c Add0~37_sumout $end
$var wire 1 d Add0~38 $end
$var wire 1 e Add0~41_sumout $end
$var wire 1 f Add0~42 $end
$var wire 1 g Add0~45_sumout $end
$var wire 1 h Add0~46 $end
$var wire 1 i Add0~53_sumout $end
$var wire 1 j Add0~54 $end
$var wire 1 k Add0~49_sumout $end
$var wire 1 l LessThan0~4_combout $end
$var wire 1 m Add0~50 $end
$var wire 1 n Add0~81_sumout $end
$var wire 1 o Add0~82 $end
$var wire 1 p Add0~57_sumout $end
$var wire 1 q Add0~58 $end
$var wire 1 r Add0~61_sumout $end
$var wire 1 s Add0~62 $end
$var wire 1 t Add0~65_sumout $end
$var wire 1 u Add0~66 $end
$var wire 1 v Add0~69_sumout $end
$var wire 1 w Add0~70 $end
$var wire 1 x Add0~77_sumout $end
$var wire 1 y Add0~78 $end
$var wire 1 z Add0~73_sumout $end
$var wire 1 { LessThan0~5_combout $end
$var wire 1 | LessThan0~6_combout $end
$var wire 1 } Add0~74 $end
$var wire 1 ~ Add0~105_sumout $end
$var wire 1 !! Add0~106 $end
$var wire 1 "! Add0~109_sumout $end
$var wire 1 #! Add0~110 $end
$var wire 1 $! Add0~113_sumout $end
$var wire 1 %! LessThan0~7_combout $end
$var wire 1 &! LessThan0~8_combout $end
$var wire 1 '! usermode~0_combout $end
$var wire 1 (! usermode~q $end
$var wire 1 )! difficulty~9_combout $end
$var wire 1 *! difficulty.hell~q $end
$var wire 1 +! difficulty~10_combout $end
$var wire 1 ,! difficulty.easy~q $end
$var wire 1 -! difficulty~13_combout $end
$var wire 1 .! difficulty.hard~q $end
$var wire 1 /! difficulty~11_combout $end
$var wire 1 0! difficulty.extreme~q $end
$var wire 1 1! LessThan0~0_combout $end
$var wire 1 2! difficulty~12_combout $end
$var wire 1 3! difficulty.medium~q $end
$var wire 1 4! LessThan0~1_combout $end
$var wire 1 5! LessThan0~2_combout $end
$var wire 1 6! LessThan0~3_combout $end
$var wire 1 7! LessThan0~9_combout $end
$var wire 1 8! Mux5~0_combout $end
$var wire 1 9! Mux4~0_combout $end
$var wire 1 :! Mux0~0_combout $end
$var wire 1 ;! Mux6~0_combout $end
$var wire 1 <! wrong_active~0_combout $end
$var wire 1 =! wrong_active~1_combout $end
$var wire 1 >! wrong_active~q $end
$var wire 1 ?! led0~0_combout $end
$var wire 1 @! Mux1~0_combout $end
$var wire 1 A! led0~1_combout $end
$var wire 1 B! led0~3_combout $end
$var wire 1 C! led0~reg0_q $end
$var wire 1 D! led1~0_combout $end
$var wire 1 E! led1~1_combout $end
$var wire 1 F! led1~reg0_q $end
$var wire 1 G! led2~1_combout $end
$var wire 1 H! led2~2_combout $end
$var wire 1 I! led2~0_combout $end
$var wire 1 J! led2~3_combout $end
$var wire 1 K! led2~reg0_q $end
$var wire 1 L! led0~2_combout $end
$var wire 1 M! led3~0_combout $end
$var wire 1 N! Mux3~0_combout $end
$var wire 1 O! led3~1_combout $end
$var wire 1 P! led3~reg0_q $end
$var wire 1 Q! i [31] $end
$var wire 1 R! i [30] $end
$var wire 1 S! i [29] $end
$var wire 1 T! i [28] $end
$var wire 1 U! i [27] $end
$var wire 1 V! i [26] $end
$var wire 1 W! i [25] $end
$var wire 1 X! i [24] $end
$var wire 1 Y! i [23] $end
$var wire 1 Z! i [22] $end
$var wire 1 [! i [21] $end
$var wire 1 \! i [20] $end
$var wire 1 ]! i [19] $end
$var wire 1 ^! i [18] $end
$var wire 1 _! i [17] $end
$var wire 1 `! i [16] $end
$var wire 1 a! i [15] $end
$var wire 1 b! i [14] $end
$var wire 1 c! i [13] $end
$var wire 1 d! i [12] $end
$var wire 1 e! i [11] $end
$var wire 1 f! i [10] $end
$var wire 1 g! i [9] $end
$var wire 1 h! i [8] $end
$var wire 1 i! i [7] $end
$var wire 1 j! i [6] $end
$var wire 1 k! i [5] $end
$var wire 1 l! i [4] $end
$var wire 1 m! i [3] $end
$var wire 1 n! i [2] $end
$var wire 1 o! i [1] $end
$var wire 1 p! i [0] $end
$upscope $end
$upscope $end
$enddefinitions $end
#0
$dumpvars
0!
0"
0#
0$
1%
1&
0'
0(
0)
0*
x+
0,
1-
x.
1/
10
11
02
03
04
05
06
07
08
09
0:
1;
1<
0=
1>
0?
0@
0A
1B
0C
0D
0E
0F
0G
0H
0I
0J
0K
0L
0M
0N
0O
0P
0Q
0R
0S
0T
0U
0V
0W
0X
0Y
0Z
0[
0\
0]
0^
0_
0`
0a
0b
0c
0d
0e
0f
0g
0h
0i
0j
0k
1l
0m
0n
0o
0p
0q
0r
0s
0t
0u
0v
0w
0x
0y
0z
1{
1|
0}
0~
0!!
0"!
0#!
0$!
1%!
1&!
0'!
0(!
0)!
0*!
0+!
0,!
0-!
0.!
0/!
00!
11!
02!
03!
14!
05!
06!
17!
08!
09!
1:!
1;!
1<!
0=!
0>!
1?!
0@!
0A!
1B!
0C!
0D!
0E!
0F!
0G!
0H!
0I!
0J!
0K!
1L!
0M!
0N!
0O!
0P!
0p!
0o!
0n!
0m!
0l!
0k!
0j!
0i!
0h!
0g!
0f!
0e!
0d!
0c!
0b!
0a!
0`!
0_!
0^!
0]!
0\!
0[!
0Z!
0Y!
0X!
0W!
0V!
0U!
0T!
0S!
0R!
0Q!
$end
#5000
0%
0;
0+
#10000
0&
1%
0>
1;
1+
1C
#15000
0%
0;
0+
#20000
1%
1;
1+
1p!
1C!
1D
0<
04!
18!
17
1'
1E
0:!
1I!
0B!
1J!
#25000
0%
0;
0+
#30000
1%
1;
1+
1o!
0p!
1K!
0C!
1F
0E
08!
19!
0;!
0D
1<
19
07
1)
0'
1G
0F
1E
0I!
1N!
0G
0J!
1O!
#35000
0%
0;
0+
#40000
1%
1;
1+
1p!
1P!
0K!
1D
0<
18!
09!
1:
09
1*
0)
1F
0E
1@!
0N!
1G
1E!
0O!
#45000
0%
0;
0+
#50000
1%
1;
1+
1n!
0o!
0p!
0P!
1F!
1H
0G
16!
1;!
0F
1E
14!
0D
1<
0:
18
0*
1(
1I
0H
1G
0E
1'!
07!
0@!
1I!
06!
0I
0E!
0'!
17!
1J!
#55000
0%
0;
0+
#60000
1%
1;
1+
1p!
1K!
0F!
1D
0<
04!
08!
19
08
1)
0(
1E
16!
1:!
0I!
1'!
07!
1B!
0J!
0B!
#65000
0%
0;
0+
#70000
1%
1;
1+
1(!
0n!
0p!
0K!
1=
0'!
1+!
12!
0G
06!
0D
1<
14!
09
0)
0E
0C
1'!
17!
0+!
02!
#75000
0%
0;
0+
#80000
1%
1;
1+
#85000
0%
0;
0+
#90000
1%
1;
1+
#95000
0%
0;
0+
#100000
1%
1;
1+
#105000
0%
0;
0+
#110000
1%
1;
1+
#115000
0%
0;
0+
#120000
1%
1;
1+
#125000
0%
0;
0+
#130000
1%
1;
1+
#135000
0%
0;
0+
#140000
1%
1;
1+
#145000
0%
0;
0+
#150000
1!
1%
1A
1;
1+
0B
1A!
15
1C
1B!
#155000
0%
0;
0+
#160000
0!
1%
0A
1;
1+
1B
0A!
05
0C
0B!
1p!
14
1C!
1D
0<
04!
18!
17
1'
1E
0:!
1I!
#165000
0%
0;
0+
#170000
1#
1%
1?
1;
1+
0B
1H!
15
1C
1J!
04
0C!
07
0'
#175000
0%
0;
0+
#180000
0#
1%
0?
1;
1+
1B
0H!
05
0C
0J!
1o!
0p!
14
1K!
1F
0E
08!
19!
0;!
0D
1<
19
1)
1G
0F
1E
0I!
1N!
0G
#185000
0%
0;
0+
#190000
1$
1%
1@
1;
1+
0B
0L!
15
1C
1M!
1O!
04
0K!
09
0)
#195000
0%
0;
0+
#200000
0$
1%
0@
1;
1+
1B
1L!
05
0C
0M!
0O!
1p!
14
1P!
1D
0<
18!
09!
1:
1*
1F
0E
1@!
0N!
1G
#205000
0%
0;
0+
#210000
1"
1%
16
1;
1+
0B
1D!
15
1C
1E!
04
0P!
0:
0*
#215000
0%
0;
0+
#220000
0"
1%
06
1;
1+
1B
0D!
05
0C
0E!
1n!
0o!
0p!
14
1F!
1H
0G
16!
1;!
0F
1E
14!
0D
1<
18
1(
1I
0H
1G
0E
1C
0'!
07!
0@!
1I!
06!
0I
1+!
12!
0C
1'!
17!
0+!
02!
#225000
0%
0;
0+
#230000
1#
1%
1?
1;
1+
0B
1H!
15
1C
1J!
04
0F!
08
0(
#235000
0%
0;
0+
#240000
0#
1%
0?
1;
1+
1B
0H!
05
0C
0J!
1p!
14
1K!
1D
0<
04!
08!
19
1)
1E
16!
1:!
0I!
1C
0'!
07!
1+!
12!
#245000
0%
0;
0+
#250000
1%
1;
1+
13!
1,!
0(!
0n!
0p!
04
0K!
14!
01!
15!
0=
1'!
0G
0D
1<
09
0)
0E
06!
0'!
17!
1B!
#255000
0%
0;
0+
#260000
1%
1;
1+
1p!
1C!
1D
0<
18!
17
1'
1E
0:!
1I!
0B!
1J!
#265000
0%
0;
0+
#270000
1%
1;
1+
1o!
0p!
1K!
0C!
1F
0E
04!
08!
19!
0;!
0D
1<
19
07
1)
0'
1G
0F
1E
0I!
1N!
0G
0J!
1O!
#275000
0%
0;
0+
#280000
1%
1;
1+
1p!
1P!
0K!
1D
0<
18!
09!
1:
09
1*
0)
1F
0E
1@!
0N!
1G
1E!
0O!
#285000
0%
0;
0+
#290000
1%
1;
1+
1n!
0o!
0p!
0P!
1F!
1H
0G
1;!
0F
1E
14!
0D
1<
0:
18
0*
1(
1I
0H
1G
0E
0@!
1I!
0I
0E!
1J!
#295000
0%
0;
0+
#300000
1%
1;
1+
1p!
1K!
0F!
1D
0<
08!
19
08
1)
0(
1E
1:!
0I!
1B!
0J!
#305000
0%
0;
0+
#310000
1%
1;
1+
1o!
0p!
0K!
1C!
1F
0E
04!
19!
0;!
0D
1<
09
17
0)
1'
1H
0G
0F
1E
0:!
1N!
1I
0H
1G
0B!
1O!
0I
#315000
0%
0;
0+
#320000
1%
1;
1+
1p!
1P!
0C!
1D
0<
18!
09!
1:
07
1*
0'
1F
0E
1@!
0N!
1H
0G
1E!
0O!
1I
#325000
0%
0;
0+
#330000
1%
1;
1+
1m!
0n!
0o!
0p!
0P!
1F!
1J
0I
11!
05!
1;!
0H
1G
0F
1E
14!
0D
1<
0:
18
0*
1(
1K
0J
1I
0G
0E
0@!
1I!
0K
0E!
1J!
#335000
0%
0;
0+
#340000
1%
1;
1+
1p!
1K!
0F!
1D
0<
08!
19
08
1)
0(
1E
1:!
0I!
1B!
0J!
#345000
0%
0;
0+
#350000
1%
1;
1+
1o!
0p!
0K!
1C!
1F
0E
04!
19!
0;!
0D
1<
09
17
0)
1'
1G
0F
1E
16!
0:!
1N!
0G
1'!
07!
0B!
1O!
0O!
#355000
0%
0;
0+
#360000
1%
1;
1+
1(!
0m!
0o!
0C!
1=
0'!
1-!
02!
0I
01!
15!
09!
1;!
0E
14!
07
0'
06!
1:!
0N!
0C
1'!
17!
0-!
12!
#365000
0%
0;
0+
#370000
1%
1;
1+
#375000
0%
0;
0+
#380000
1%
1;
1+
#385000
0%
0;
0+
#390000
1%
1;
1+
#395000
0%
0;
0+
